<?xml version="1.0" encoding="utf-8"?>
<!-- Generator: Adobe Illustrator 22.1.0, SVG Export Plug-In . SVG Version: 6.00 Build 0)  -->
<svg version="1.1" id="Calque_1" xmlns="http://www.w3.org/2000/svg" xmlns:xlink="http://www.w3.org/1999/xlink" x="0px" y="0px"
	 width="1088px" height="512px" viewBox="0 0 1088 512" enable-background="new 0 0 1088 512" xml:space="preserve">
<g>
	<path fill="#262261" d="M926.621,194.451h-36.772v-31.773c0-10.334-8.406-18.741-18.741-18.741H737.233
		c-10.334,0-18.741,8.407-18.741,18.741v133.875c0,10.334,8.406,18.741,18.741,18.741h36.771v31.774
		c0,10.334,8.406,18.741,18.741,18.741h133.875c10.334,0,18.741-8.406,18.741-18.741V213.192
		C945.362,202.858,936.955,194.451,926.621,194.451z M737.233,302.8c-3.445,0-6.247-2.802-6.247-6.247V162.678
		c0-3.445,2.802-6.247,6.247-6.247h133.875c3.444,0,6.247,2.802,6.247,6.247v31.773h-84.61c-10.334,0-18.741,8.406-18.741,18.741
		V302.8H737.233z M877.355,206.945v89.608c0,3.445-2.803,6.247-6.247,6.247h-84.61v-89.608c0-3.445,2.803-6.247,6.247-6.247H877.355
		z M932.868,347.068c0,3.444-2.803,6.247-6.247,6.247H792.746c-3.444,0-6.247-2.803-6.247-6.247v-31.774h84.61
		c10.334,0,18.741-8.406,18.741-18.741v-89.608h36.772c3.444,0,6.247,2.802,6.247,6.247V347.068z"/>
	<path fill="#EE4036" d="M871.534,303.321c3.482,0,6.315-2.833,6.315-6.315v-90.582h-85.53c-3.482,0-6.315,2.833-6.315,6.315v90.582
		H871.534z"/>
	<g>
		<path fill="#262261" d="M145.741,194.576c0-29.838,23.24-51.93,54.944-51.93c31.561,0,54.944,21.949,54.944,51.93
			c0,29.983-23.384,51.932-54.944,51.932C168.982,246.509,145.741,224.416,145.741,194.576z M232.102,194.576
			c0-19.078-13.484-32.134-31.416-32.134s-31.418,13.056-31.418,32.134c0,19.08,13.486,32.134,31.418,32.134
			S232.102,213.656,232.102,194.576z"/>
		<path fill="#262261" d="M301.088,234.888l7.89-17.502c8.463,6.169,21.088,10.474,33.138,10.474
			c13.772,0,19.366-4.591,19.366-10.76c0-18.794-58.387-5.883-58.387-43.18c0-17.072,13.772-31.273,42.319-31.273
			c12.625,0,25.536,3.012,34.86,8.893l-7.172,17.647c-9.326-5.308-18.937-7.891-27.831-7.891c-13.772,0-19.08,5.165-19.08,11.478
			c0,18.506,58.388,5.738,58.388,42.606c0,16.784-13.916,31.13-42.607,31.13C326.049,246.509,309.982,241.775,301.088,234.888z"/>
		<path fill="#262261" d="M523.431,180.804c0,22.381-16.785,36.296-43.611,36.296h-20.227v27.687h-23.24V144.368h43.468
			C506.646,144.368,523.431,158.283,523.431,180.804z M499.903,180.804c0-11.046-7.172-17.502-21.374-17.502h-18.936v34.86h18.936
			C492.731,198.163,499.903,191.707,499.903,180.804z"/>
		<path fill="#262261" d="M570.898,194.576c0-29.838,23.24-51.93,54.944-51.93c31.561,0,54.944,21.949,54.944,51.93
			c0,29.983-23.383,51.932-54.944,51.932C594.139,246.509,570.898,224.416,570.898,194.576z M657.259,194.576
			c0-19.078-13.484-32.134-31.416-32.134s-31.418,13.056-31.418,32.134c0,19.08,13.486,32.134,31.418,32.134
			S657.259,213.656,657.259,194.576z"/>
	</g>
	<g>
		<path fill="#EE4036" d="M201.38,349.089h-35.776l-7.052,16.559h-13.697l32.197-71.55h13.084l32.301,71.55h-13.901L201.38,349.089z
			 M196.984,338.664l-13.493-31.278l-13.389,31.278H196.984z"/>
		<path fill="#EE4036" d="M231.542,294.098h13.288v60.307h37.411v11.243h-50.699V294.098z"/>
		<path fill="#EE4036" d="M292.777,294.098h13.288v60.307h37.411v11.243h-50.699V294.098z"/>
		<path fill="#EE4036" d="M354.011,294.098h13.288v71.55h-13.288V294.098z"/>
		<path fill="#EE4036" d="M433.027,349.089h-35.776l-7.052,16.559h-13.697l32.197-71.55h13.084l32.301,71.55h-13.901
			L433.027,349.089z M428.631,338.664l-13.493-31.278l-13.389,31.278H428.631z"/>
		<path fill="#EE4036" d="M526.768,294.098v71.55h-10.938l-39.456-48.449v48.449h-13.186v-71.55h10.938l39.456,48.449v-48.449
			H526.768z"/>
		<path fill="#EE4036" d="M540.883,329.873c0-21.364,16.355-36.799,38.332-36.799c11.652,0,21.669,4.191,28.313,11.961l-8.586,8.074
			c-5.214-5.622-11.653-8.382-19.115-8.382c-14.821,0-25.554,10.427-25.554,25.146s10.733,25.146,25.554,25.146
			c7.462,0,13.901-2.76,19.115-8.486l8.586,8.177c-6.644,7.768-16.662,11.959-28.416,11.959
			C557.238,366.669,540.883,351.235,540.883,329.873z"/>
		<path fill="#EE4036" d="M673.978,354.506v11.142h-53.664v-71.55h52.232v11.14h-38.944v18.604h34.549v10.938h-34.549v19.727
			H673.978z"/>
	</g>
</g>
</svg>
